0000.001 (0) Opened log file at time: Fri, 20 Oct 2017 09:11:09 +0000 on http://localhost/gio
0000.003 (0) UpdraftPlus WordPress backup plugin (https://updraftplus.com): 1.13.11 WP: 4.8.2 PHP: 7.1.1 (apache2handler, Windows NT ADMINRG-RBK7U81 10.0 build 15063 (Windows 10) i586) MySQL: 5.5.5 WPLANG: nl_NL Server: Apache/2.4.25 (Win32) OpenSSL/1.0.2j PHP/7.1.1 safe_mode: 0 max_execution_time: 900 memory_limit: 256M (used: 53.5M | 2M) multisite: N openssl: OpenSSL 1.0.2j  26 Sep 2016 mcrypt: Y LANG:  ZipArchive::addFile: Y
0000.004 (0) Free space on disk containing Updraft's temporary directory: 14139.7 MB
0000.019 (0) Tasks: Backup files: 1 (schedule: manual) Backup DB: 1 (schedule: manual)
0000.021 (0) Requesting semaphore lock (fd) (apparently not via scheduler)
0000.023 (0) Set semaphore last lock (fd) time to 2017-10-20 09:11:09
0000.023 (0) Semaphore lock (fd) complete
0000.025 (0) Backup run: resumption=0, nonce=b0789a25bd27, begun at=1508490669 (0s ago), job type=backup
0000.027 (0) Scheduling a resumption (1) after 300 seconds (1508490969) in case this run gets aborted
0000.042 (0) Checking if we have a zip executable available
0000.044 (0) Creation of backups of directories: beginning
0000.054 (0) Beginning creation of dump of plugins (split every: 400 MB)
0011.165 (0) Total entities for the zip file: 752 directories, 6285 files (0 skipped as non-modified), 70.5 MB
0011.170 (0) Adding batch to zip file (UpdraftPlus_ZipArchive): over 2.0 seconds have passed since the last write (0 MB, 1 (1) files added so far); re-opening (prior size: 0 KB)
0011.292 (0) Zip: backup_2017-10-20-1011_GIO_adviesgroep_b0789a25bd27-plugins.zip.tmp: 100 files added (on-disk size: 136.7 KB)
0011.447 (0) Zip: backup_2017-10-20-1011_GIO_adviesgroep_b0789a25bd27-plugins.zip.tmp: 200 files added (on-disk size: 136.7 KB)
0011.609 (0) Zip: backup_2017-10-20-1011_GIO_adviesgroep_b0789a25bd27-plugins.zip.tmp: 300 files added (on-disk size: 136.7 KB)
0011.755 (0) Zip: backup_2017-10-20-1011_GIO_adviesgroep_b0789a25bd27-plugins.zip.tmp: 400 files added (on-disk size: 136.7 KB)
0011.932 (0) Zip: backup_2017-10-20-1011_GIO_adviesgroep_b0789a25bd27-plugins.zip.tmp: 500 files added (on-disk size: 136.7 KB)
0011.936 (0) Adding batch to zip file (UpdraftPlus_ZipArchive): over 500 files added on this batch (5.2 MB, 6285 files batched, 501 (502) added so far); re-opening (prior size: 136.7 KB)
0012.716 (0) Zip: backup_2017-10-20-1011_GIO_adviesgroep_b0789a25bd27-plugins.zip.tmp: 600 files added (on-disk size: 2762.9 KB)
0012.899 (0) Zip: backup_2017-10-20-1011_GIO_adviesgroep_b0789a25bd27-plugins.zip.tmp: 700 files added (on-disk size: 2762.9 KB)
0013.146 (0) Zip: backup_2017-10-20-1011_GIO_adviesgroep_b0789a25bd27-plugins.zip.tmp: 800 files added (on-disk size: 2762.9 KB)
0013.318 (0) Zip: backup_2017-10-20-1011_GIO_adviesgroep_b0789a25bd27-plugins.zip.tmp: 900 files added (on-disk size: 2762.9 KB)
0013.613 (0) Zip: backup_2017-10-20-1011_GIO_adviesgroep_b0789a25bd27-plugins.zip.tmp: 1000 files added (on-disk size: 2762.9 KB)
0013.628 (0) Adding batch to zip file (UpdraftPlus_ZipArchive): over 500 files added on this batch (7.1 MB, 6285 files batched, 501 (1003) added so far); re-opening (prior size: 2762.9 KB)
0014.833 (0) Zip: backup_2017-10-20-1011_GIO_adviesgroep_b0789a25bd27-plugins.zip.tmp: 1100 files added (on-disk size: 4835.6 KB)
0015.185 (0) Zip: backup_2017-10-20-1011_GIO_adviesgroep_b0789a25bd27-plugins.zip.tmp: 1200 files added (on-disk size: 4835.6 KB)
0015.451 (0) Zip: backup_2017-10-20-1011_GIO_adviesgroep_b0789a25bd27-plugins.zip.tmp: 1300 files added (on-disk size: 4835.6 KB)
0015.724 (0) Zip: backup_2017-10-20-1011_GIO_adviesgroep_b0789a25bd27-plugins.zip.tmp: 1400 files added (on-disk size: 4835.6 KB)
0015.886 (0) Zip: backup_2017-10-20-1011_GIO_adviesgroep_b0789a25bd27-plugins.zip.tmp: 1500 files added (on-disk size: 4835.6 KB)
0015.894 (0) Adding batch to zip file (UpdraftPlus_ZipArchive): over 500 files added on this batch (5.1 MB, 6285 files batched, 501 (1504) added so far); re-opening (prior size: 4835.6 KB)
0016.754 (0) Zip: backup_2017-10-20-1011_GIO_adviesgroep_b0789a25bd27-plugins.zip.tmp: 1600 files added (on-disk size: 6532.9 KB)
0016.950 (0) Zip: backup_2017-10-20-1011_GIO_adviesgroep_b0789a25bd27-plugins.zip.tmp: 1700 files added (on-disk size: 6532.9 KB)
0017.154 (0) Zip: backup_2017-10-20-1011_GIO_adviesgroep_b0789a25bd27-plugins.zip.tmp: 1800 files added (on-disk size: 6532.9 KB)
0017.349 (0) Zip: backup_2017-10-20-1011_GIO_adviesgroep_b0789a25bd27-plugins.zip.tmp: 1900 files added (on-disk size: 6532.9 KB)
0017.558 (0) Zip: backup_2017-10-20-1011_GIO_adviesgroep_b0789a25bd27-plugins.zip.tmp: 2000 files added (on-disk size: 6532.9 KB)
0017.568 (0) Adding batch to zip file (UpdraftPlus_ZipArchive): over 500 files added on this batch (2.8 MB, 6285 files batched, 501 (2005) added so far); re-opening (prior size: 6532.9 KB)
0017.947 (0) Zip: backup_2017-10-20-1011_GIO_adviesgroep_b0789a25bd27-plugins.zip.tmp: 2100 files added (on-disk size: 9534.6 KB)
0018.091 (0) Zip: backup_2017-10-20-1011_GIO_adviesgroep_b0789a25bd27-plugins.zip.tmp: 2200 files added (on-disk size: 9534.6 KB)
0018.296 (0) Zip: backup_2017-10-20-1011_GIO_adviesgroep_b0789a25bd27-plugins.zip.tmp: 2300 files added (on-disk size: 9534.6 KB)
0018.521 (0) Zip: backup_2017-10-20-1011_GIO_adviesgroep_b0789a25bd27-plugins.zip.tmp: 2400 files added (on-disk size: 9534.6 KB)
0018.726 (0) Zip: backup_2017-10-20-1011_GIO_adviesgroep_b0789a25bd27-plugins.zip.tmp: 2500 files added (on-disk size: 9534.6 KB)
0018.740 (0) Adding batch to zip file (UpdraftPlus_ZipArchive): over 500 files added on this batch (7 MB, 6285 files batched, 501 (2506) added so far); re-opening (prior size: 9534.6 KB)
0019.806 (0) Zip: backup_2017-10-20-1011_GIO_adviesgroep_b0789a25bd27-plugins.zip.tmp: 2600 files added (on-disk size: 11751.5 KB)
0020.010 (0) Zip: backup_2017-10-20-1011_GIO_adviesgroep_b0789a25bd27-plugins.zip.tmp: 2700 files added (on-disk size: 11751.5 KB)
0020.233 (0) Zip: backup_2017-10-20-1011_GIO_adviesgroep_b0789a25bd27-plugins.zip.tmp: 2800 files added (on-disk size: 11751.5 KB)
0020.449 (0) Zip: backup_2017-10-20-1011_GIO_adviesgroep_b0789a25bd27-plugins.zip.tmp: 2900 files added (on-disk size: 11751.5 KB)
0020.671 (0) Zip: backup_2017-10-20-1011_GIO_adviesgroep_b0789a25bd27-plugins.zip.tmp: 3000 files added (on-disk size: 11751.5 KB)
0020.688 (0) Adding batch to zip file (UpdraftPlus_ZipArchive): over 500 files added on this batch (2.4 MB, 6285 files batched, 501 (3007) added so far); re-opening (prior size: 11751.5 KB)
0021.448 (0) Zip: backup_2017-10-20-1011_GIO_adviesgroep_b0789a25bd27-plugins.zip.tmp: 3100 files added (on-disk size: 13051.7 KB)
0021.654 (0) Zip: backup_2017-10-20-1011_GIO_adviesgroep_b0789a25bd27-plugins.zip.tmp: 3200 files added (on-disk size: 13051.7 KB)
0021.885 (0) Zip: backup_2017-10-20-1011_GIO_adviesgroep_b0789a25bd27-plugins.zip.tmp: 3300 files added (on-disk size: 13051.7 KB)
0022.124 (0) Zip: backup_2017-10-20-1011_GIO_adviesgroep_b0789a25bd27-plugins.zip.tmp: 3400 files added (on-disk size: 13051.7 KB)
0022.358 (0) Zip: backup_2017-10-20-1011_GIO_adviesgroep_b0789a25bd27-plugins.zip.tmp: 3500 files added (on-disk size: 13051.7 KB)
0022.375 (0) Adding batch to zip file (UpdraftPlus_ZipArchive): over 500 files added on this batch (0.2 MB, 6285 files batched, 501 (3508) added so far); re-opening (prior size: 13051.7 KB)
0022.876 (0) Zip: backup_2017-10-20-1011_GIO_adviesgroep_b0789a25bd27-plugins.zip.tmp: 3600 files added (on-disk size: 13279.4 KB)
0023.056 (0) Zip: backup_2017-10-20-1011_GIO_adviesgroep_b0789a25bd27-plugins.zip.tmp: 3700 files added (on-disk size: 13279.4 KB)
0023.266 (0) Zip: backup_2017-10-20-1011_GIO_adviesgroep_b0789a25bd27-plugins.zip.tmp: 3800 files added (on-disk size: 13279.4 KB)
0023.571 (0) Zip: backup_2017-10-20-1011_GIO_adviesgroep_b0789a25bd27-plugins.zip.tmp: 3900 files added (on-disk size: 13279.4 KB)
0023.759 (0) Zip: backup_2017-10-20-1011_GIO_adviesgroep_b0789a25bd27-plugins.zip.tmp: 4000 files added (on-disk size: 13279.4 KB)
0023.777 (0) Adding batch to zip file (UpdraftPlus_ZipArchive): over 500 files added on this batch (5.8 MB, 6285 files batched, 501 (4009) added so far); re-opening (prior size: 13279.4 KB)
0024.617 (0) Zip: backup_2017-10-20-1011_GIO_adviesgroep_b0789a25bd27-plugins.zip.tmp: 4100 files added (on-disk size: 17755.5 KB)
0024.823 (0) Zip: backup_2017-10-20-1011_GIO_adviesgroep_b0789a25bd27-plugins.zip.tmp: 4200 files added (on-disk size: 17755.5 KB)
0025.005 (0) Zip: backup_2017-10-20-1011_GIO_adviesgroep_b0789a25bd27-plugins.zip.tmp: 4300 files added (on-disk size: 17755.5 KB)
0025.156 (0) Zip: backup_2017-10-20-1011_GIO_adviesgroep_b0789a25bd27-plugins.zip.tmp: 4400 files added (on-disk size: 17755.5 KB)
0025.321 (0) Zip: backup_2017-10-20-1011_GIO_adviesgroep_b0789a25bd27-plugins.zip.tmp: 4500 files added (on-disk size: 17755.5 KB)
0025.340 (0) Adding batch to zip file (UpdraftPlus_ZipArchive): over 500 files added on this batch (9.8 MB, 6285 files batched, 501 (4510) added so far); re-opening (prior size: 17755.5 KB)
0026.959 (0) Zip: backup_2017-10-20-1011_GIO_adviesgroep_b0789a25bd27-plugins.zip.tmp: 4600 files added (on-disk size: 20903.2 KB)
0027.105 (0) Zip: backup_2017-10-20-1011_GIO_adviesgroep_b0789a25bd27-plugins.zip.tmp: 4700 files added (on-disk size: 20903.2 KB)
0027.379 (0) Zip: backup_2017-10-20-1011_GIO_adviesgroep_b0789a25bd27-plugins.zip.tmp: 4800 files added (on-disk size: 20903.2 KB)
0027.663 (0) Zip: backup_2017-10-20-1011_GIO_adviesgroep_b0789a25bd27-plugins.zip.tmp: 4900 files added (on-disk size: 20903.2 KB)
0027.933 (0) Zip: backup_2017-10-20-1011_GIO_adviesgroep_b0789a25bd27-plugins.zip.tmp: 5000 files added (on-disk size: 20903.2 KB)
0027.960 (0) Adding batch to zip file (UpdraftPlus_ZipArchive): over 500 files added on this batch (14.5 MB, 6285 files batched, 501 (5011) added so far); re-opening (prior size: 20903.2 KB)
0030.412 (0) Zip: backup_2017-10-20-1011_GIO_adviesgroep_b0789a25bd27-plugins.zip.tmp: 5100 files added (on-disk size: 24862.5 KB)
0030.668 (0) Zip: backup_2017-10-20-1011_GIO_adviesgroep_b0789a25bd27-plugins.zip.tmp: 5200 files added (on-disk size: 24862.5 KB)
0030.897 (0) Zip: backup_2017-10-20-1011_GIO_adviesgroep_b0789a25bd27-plugins.zip.tmp: 5300 files added (on-disk size: 24862.5 KB)
0031.111 (0) Zip: backup_2017-10-20-1011_GIO_adviesgroep_b0789a25bd27-plugins.zip.tmp: 5400 files added (on-disk size: 24862.5 KB)
0031.363 (0) Zip: backup_2017-10-20-1011_GIO_adviesgroep_b0789a25bd27-plugins.zip.tmp: 5500 files added (on-disk size: 24862.5 KB)
0031.400 (0) Adding batch to zip file (UpdraftPlus_ZipArchive): over 500 files added on this batch (2.6 MB, 6285 files batched, 501 (5512) added so far); re-opening (prior size: 24862.5 KB)
0032.500 (0) Zip: backup_2017-10-20-1011_GIO_adviesgroep_b0789a25bd27-plugins.zip.tmp: 5600 files added (on-disk size: 25752.8 KB)
0032.690 (0) Zip: backup_2017-10-20-1011_GIO_adviesgroep_b0789a25bd27-plugins.zip.tmp: 5700 files added (on-disk size: 25752.8 KB)
0032.842 (0) Zip: backup_2017-10-20-1011_GIO_adviesgroep_b0789a25bd27-plugins.zip.tmp: 5800 files added (on-disk size: 25752.8 KB)
0032.997 (0) Zip: backup_2017-10-20-1011_GIO_adviesgroep_b0789a25bd27-plugins.zip.tmp: 5900 files added (on-disk size: 25752.8 KB)
0033.144 (0) Zip: backup_2017-10-20-1011_GIO_adviesgroep_b0789a25bd27-plugins.zip.tmp: 6000 files added (on-disk size: 25752.8 KB)
0033.170 (0) Adding batch to zip file (UpdraftPlus_ZipArchive): over 500 files added on this batch (2.7 MB, 6285 files batched, 501 (6013) added so far); re-opening (prior size: 25752.8 KB)
0033.923 (0) Zip: backup_2017-10-20-1011_GIO_adviesgroep_b0789a25bd27-plugins.zip.tmp: 6100 files added (on-disk size: 27068.6 KB)
0034.086 (0) Zip: backup_2017-10-20-1011_GIO_adviesgroep_b0789a25bd27-plugins.zip.tmp: 6200 files added (on-disk size: 27068.6 KB)
0035.830 (0) Created plugins zip (0) - 28742.9 KB in 35.8 s (803.7 KB/s) (sha1: b2b42811f4d8854790cfba63132c9c56823ab298, sha256: f96d65e9a835d73e60c1e21c4721050547d0e19e126448c0fb641a13255fb09b)
0035.833 (0) Beginning creation of dump of themes (split every: 400 MB)
0037.991 (0) Total entities for the zip file: 228 directories, 2040 files (0 skipped as non-modified), 105.1 MB
0037.994 (0) Adding batch to zip file (UpdraftPlus_ZipArchive): over 2.0 seconds have passed since the last write (0 MB, 1 (1) files added so far); re-opening (prior size: 0 KB)
0038.113 (0) Zip: backup_2017-10-20-1011_GIO_adviesgroep_b0789a25bd27-themes.zip.tmp: 100 files added (on-disk size: 36.2 KB)
0038.239 (0) Zip: backup_2017-10-20-1011_GIO_adviesgroep_b0789a25bd27-themes.zip.tmp: 200 files added (on-disk size: 36.2 KB)
0038.365 (0) Zip: backup_2017-10-20-1011_GIO_adviesgroep_b0789a25bd27-themes.zip.tmp: 300 files added (on-disk size: 36.2 KB)
0038.475 (0) Zip: backup_2017-10-20-1011_GIO_adviesgroep_b0789a25bd27-themes.zip.tmp: 400 files added (on-disk size: 36.2 KB)
0038.598 (0) Zip: backup_2017-10-20-1011_GIO_adviesgroep_b0789a25bd27-themes.zip.tmp: 500 files added (on-disk size: 36.2 KB)
0038.601 (0) Adding batch to zip file (UpdraftPlus_ZipArchive): over 500 files added on this batch (6 MB, 2040 files batched, 501 (502) added so far); re-opening (prior size: 36.2 KB)
0039.573 (0) Zip: backup_2017-10-20-1011_GIO_adviesgroep_b0789a25bd27-themes.zip.tmp: 600 files added (on-disk size: 2575 KB)
0039.815 (0) Adding batch to zip file (UpdraftPlus_ZipArchive): over 25 MB added on this batch (25.3 MB, 2040 files batched, 192 (694) added so far); re-opening (prior size: 2575 KB)
0040.457 (0) A useful amount of data was added after this amount of zip processing: 1.5 s (normalised: 1.5 s, rate: 17553.5 KB/s)
0040.458 (0) Performance is good - will increase the amount of data we attempt to batch (time=1.4731879234314, normalised_time=1.45840211908, max_time=-1, data points known=0, old_max_bytes=26214400, new_max_bytes=107848444)
0040.476 (0) Zip: backup_2017-10-20-1011_GIO_adviesgroep_b0789a25bd27-themes.zip.tmp: 700 files added (on-disk size: 16102.3 KB)
0040.602 (0) Zip: backup_2017-10-20-1011_GIO_adviesgroep_b0789a25bd27-themes.zip.tmp: 800 files added (on-disk size: 16102.3 KB)
0040.732 (0) Zip: backup_2017-10-20-1011_GIO_adviesgroep_b0789a25bd27-themes.zip.tmp: 900 files added (on-disk size: 16102.3 KB)
0040.871 (0) Zip: backup_2017-10-20-1011_GIO_adviesgroep_b0789a25bd27-themes.zip.tmp: 1000 files added (on-disk size: 16102.3 KB)
0041.094 (0) Zip: backup_2017-10-20-1011_GIO_adviesgroep_b0789a25bd27-themes.zip.tmp: 1100 files added (on-disk size: 16102.3 KB)
0041.269 (0) Adding batch to zip file (UpdraftPlus_ZipArchive): over 500 files added on this batch (16.2 MB, 2040 files batched, 501 (1195) added so far); re-opening (prior size: 16102.3 KB)
0041.972 (0) Zip: backup_2017-10-20-1011_GIO_adviesgroep_b0789a25bd27-themes.zip.tmp: 1200 files added (on-disk size: 29035.7 KB)
0042.201 (0) Zip: backup_2017-10-20-1011_GIO_adviesgroep_b0789a25bd27-themes.zip.tmp: 1300 files added (on-disk size: 29035.7 KB)
0042.513 (0) Zip: backup_2017-10-20-1011_GIO_adviesgroep_b0789a25bd27-themes.zip.tmp: 1400 files added (on-disk size: 29035.7 KB)
0042.756 (0) Zip: backup_2017-10-20-1011_GIO_adviesgroep_b0789a25bd27-themes.zip.tmp: 1500 files added (on-disk size: 29035.7 KB)
0042.948 (0) Zip: backup_2017-10-20-1011_GIO_adviesgroep_b0789a25bd27-themes.zip.tmp: 1600 files added (on-disk size: 29035.7 KB)
0043.179 (0) Adding batch to zip file (UpdraftPlus_ZipArchive): over 500 files added on this batch (37.5 MB, 2040 files batched, 501 (1696) added so far); re-opening (prior size: 29035.7 KB)
0044.981 (0) Zip: backup_2017-10-20-1011_GIO_adviesgroep_b0789a25bd27-themes.zip.tmp: 1700 files added (on-disk size: 47575.8 KB)
0045.174 (0) Zip: backup_2017-10-20-1011_GIO_adviesgroep_b0789a25bd27-themes.zip.tmp: 1800 files added (on-disk size: 47575.8 KB)
0045.308 (0) Zip: backup_2017-10-20-1011_GIO_adviesgroep_b0789a25bd27-themes.zip.tmp: 1900 files added (on-disk size: 47575.8 KB)
0045.453 (0) Zip: backup_2017-10-20-1011_GIO_adviesgroep_b0789a25bd27-themes.zip.tmp: 2000 files added (on-disk size: 47575.8 KB)
0047.156 (0) Created themes zip (0) - 63583.9 KB in 11.3 s (5620.7 KB/s) (sha1: 936230ef89b72140ab0b6b91a253dcee232cf6be, sha256: 6c87d30445b57f37cc460bd297ad8ca2e018f8660fea81f0d1ba42bbc86a39c6)
0047.159 (0) No backup of uploads: excluded by user's options
0047.161 (0) Beginning backup of other directories found in the content directory (index: 0)
0047.162 (0) Exclusion option setting (others): upgrade,cache,updraft,backup*,*backups,mysql.sql,debug.log
0047.163 (0) Looking for candidates to back up in: C:\xampp\htdocs\gio/wp-content
0047.164 (0) finding files: .htaccess: adding to list (1)
0047.164 (0) finding files: index.php: adding to list (2)
0047.165 (0) finding files: languages: adding to list (3)
0047.165 (0) finding files: plugins: skipping: this is the plugins directory
0047.166 (0) finding files: themes: skipping: this is the themes directory
0047.166 (0) finding files: updraft: skipping: this is the updraft directory
0047.167 (0) finding files: upgrade: skipping: excluded by options
0047.167 (0) finding files: uploads: skipping: this is the uploads directory
0047.195 (0) Total entities for the zip file: 3 directories, 32 files (0 skipped as non-modified), 2.7 MB
0047.671 (0) Created others zip (0) - 788 KB in 0.5 s (1597.9 KB/s) (sha1: bc3c1f422fe68006089d25c796ba549cee725a87, sha256: b50e35ef6668faa716403d0be1597f5533e2611d87bb662d58b5e36ba7616c50)
0047.677 (0) Saving backup status to database (elements: 6)
0047.679 (0) Beginning creation of database dump (WordPress DB)
0047.697 (0) Table wp_options: Total expected rows (approximate): 471
0047.783 (0) Table wp_options: Total rows added: 465 in 0.09 seconds
0047.789 (0) Table wp_options: finishing file (backup_2017-10-20-1011_GIO_adviesgroep_b0789a25bd27-db-table-wp_options.table.gz - 108.3 KB)
0047.797 (0) Table wp_users: Total expected rows (approximate): 8
0047.809 (0) Table wp_users: Total rows added: 8 in 0.01 seconds
0047.811 (0) Table wp_users: finishing file (backup_2017-10-20-1011_GIO_adviesgroep_b0789a25bd27-db-table-wp_users.table.gz - 1.1 KB)
0047.819 (0) Table wp_usermeta: Total expected rows (approximate): 172
0047.830 (0) Table wp_usermeta: Total rows added: 172 in 0.01 seconds
0047.832 (0) Table wp_usermeta: finishing file (backup_2017-10-20-1011_GIO_adviesgroep_b0789a25bd27-db-table-wp_usermeta.table.gz - 5.3 KB)
0047.840 (0) Table wp_commentmeta: Total expected rows (approximate): 0
0047.852 (0) Table wp_commentmeta: Total rows added: 0 in 0.01 seconds
0047.857 (0) Table wp_commentmeta: finishing file (backup_2017-10-20-1011_GIO_adviesgroep_b0789a25bd27-db-table-wp_commentmeta.table.gz - 0.3 KB)
0047.873 (0) Table wp_comments: Total expected rows (approximate): 0
0047.893 (0) Table wp_comments: Total rows added: 0 in 0.02 seconds
0047.898 (0) Table wp_comments: finishing file (backup_2017-10-20-1011_GIO_adviesgroep_b0789a25bd27-db-table-wp_comments.table.gz - 0.5 KB)
0047.913 (0) Table wp_links: Total expected rows (approximate): 0
0047.934 (0) Table wp_links: Total rows added: 0 in 0.02 seconds
0047.939 (0) Table wp_links: finishing file (backup_2017-10-20-1011_GIO_adviesgroep_b0789a25bd27-db-table-wp_links.table.gz - 0.4 KB)
0047.954 (0) Table wp_postmeta: Total expected rows (approximate): 26148
0048.413 (0) Table wp_postmeta: Total rows added: 26148 in 0.46 seconds
0048.419 (0) Table wp_postmeta: finishing file (backup_2017-10-20-1011_GIO_adviesgroep_b0789a25bd27-db-table-wp_postmeta.table.gz - 223.6 KB)
0048.427 (0) Table wp_posts: Total expected rows (approximate): 1903
0048.800 (0) Table wp_posts: Total rows added: 1903 in 0.37 seconds
0048.807 (0) Table wp_posts: finishing file (backup_2017-10-20-1011_GIO_adviesgroep_b0789a25bd27-db-table-wp_posts.table.gz - 507.2 KB)
0048.815 (0) Table wp_term_relationships: Total expected rows (approximate): 102
0048.827 (0) Table wp_term_relationships: Total rows added: 102 in 0.01 seconds
0048.833 (0) Table wp_term_relationships: finishing file (backup_2017-10-20-1011_GIO_adviesgroep_b0789a25bd27-db-table-wp_term_relationships.table.gz - 0.7 KB)
0048.841 (0) Table wp_term_taxonomy: Total expected rows (approximate): 42
0048.852 (0) Table wp_term_taxonomy: Total rows added: 42 in 0.01 seconds
0048.855 (0) Table wp_term_taxonomy: finishing file (backup_2017-10-20-1011_GIO_adviesgroep_b0789a25bd27-db-table-wp_term_taxonomy.table.gz - 0.7 KB)
0048.863 (0) Table wp_termmeta: Total expected rows (approximate): 0
0048.874 (0) Table wp_termmeta: Total rows added: 0 in 0.01 seconds
0048.877 (0) Table wp_termmeta: finishing file (backup_2017-10-20-1011_GIO_adviesgroep_b0789a25bd27-db-table-wp_termmeta.table.gz - 0.3 KB)
0048.885 (0) Table wp_terms: Total expected rows (approximate): 42
0048.894 (0) Table wp_terms: Total rows added: 42 in 0.01 seconds
0048.896 (0) Table wp_terms: finishing file (backup_2017-10-20-1011_GIO_adviesgroep_b0789a25bd27-db-table-wp_terms.table.gz - 0.9 KB)
0048.904 (0) Table wp_cf7dbplugin_st: Total expected rows (approximate): 491
0048.918 (0) Table wp_cf7dbplugin_st: Total rows added: 491 in 0.01 seconds
0048.921 (0) Table wp_cf7dbplugin_st: finishing file (backup_2017-10-20-1011_GIO_adviesgroep_b0789a25bd27-db-table-wp_cf7dbplugin_st.table.gz - 4 KB)
0048.929 (0) Table wp_cf7dbplugin_submits: Total expected rows (approximate): 5412
0049.036 (0) Table wp_cf7dbplugin_submits: Total rows added: 5412 in 0.11 seconds
0049.043 (0) Table wp_cf7dbplugin_submits: finishing file (backup_2017-10-20-1011_GIO_adviesgroep_b0789a25bd27-db-table-wp_cf7dbplugin_submits.table.gz - 108.7 KB)
0049.051 (0) Table wp_duplicator_packages: Total expected rows (approximate): 0
0049.065 (0) Table wp_duplicator_packages: Total rows added: 0 in 0.01 seconds
0049.067 (0) Table wp_duplicator_packages: finishing file (backup_2017-10-20-1011_GIO_adviesgroep_b0789a25bd27-db-table-wp_duplicator_packages.table.gz - 0.4 KB)
0049.075 (0) Table wp_iwp_backup_status: Total expected rows (approximate): 0
0049.086 (0) Table wp_iwp_backup_status: Total rows added: 0 in 0.01 seconds
0049.089 (0) Table wp_iwp_backup_status: finishing file (backup_2017-10-20-1011_GIO_adviesgroep_b0789a25bd27-db-table-wp_iwp_backup_status.table.gz - 0.4 KB)
0049.097 (0) Table wp_layerslider: Total expected rows (approximate): 4
0049.111 (0) Table wp_layerslider: Total rows added: 4 in 0.01 seconds
0049.117 (0) Table wp_layerslider: finishing file (backup_2017-10-20-1011_GIO_adviesgroep_b0789a25bd27-db-table-wp_layerslider.table.gz - 6.1 KB)
0049.125 (0) Table wp_revslider_css: Total expected rows (approximate): 121
0049.140 (0) Table wp_revslider_css: Total rows added: 121 in 0.01 seconds
0049.143 (0) Table wp_revslider_css: finishing file (backup_2017-10-20-1011_GIO_adviesgroep_b0789a25bd27-db-table-wp_revslider_css.table.gz - 5.2 KB)
0049.152 (0) Table wp_revslider_layer_animations: Total expected rows (approximate): 0
0049.163 (0) Table wp_revslider_layer_animations: Total rows added: 0 in 0.01 seconds
0049.165 (0) Table wp_revslider_layer_animations: finishing file (backup_2017-10-20-1011_GIO_adviesgroep_b0789a25bd27-db-table-wp_revslider_layer_animations.table.gz - 0.3 KB)
0049.173 (0) Table wp_revslider_navigations: Total expected rows (approximate): 0
0049.181 (0) Table wp_revslider_navigations: Total rows added: 0 in 0.01 seconds
0049.183 (0) Table wp_revslider_navigations: finishing file (backup_2017-10-20-1011_GIO_adviesgroep_b0789a25bd27-db-table-wp_revslider_navigations.table.gz - 0.3 KB)
0049.191 (0) Table wp_revslider_sliders: Total expected rows (approximate): 5
0049.200 (0) Table wp_revslider_sliders: Total rows added: 5 in 0.01 seconds
0049.203 (0) Table wp_revslider_sliders: finishing file (backup_2017-10-20-1011_GIO_adviesgroep_b0789a25bd27-db-table-wp_revslider_sliders.table.gz - 3.6 KB)
0049.211 (0) Table wp_revslider_slides: Total expected rows (approximate): 12
0049.222 (0) Table wp_revslider_slides: Total rows added: 12 in 0.01 seconds
0049.231 (0) Table wp_revslider_slides: finishing file (backup_2017-10-20-1011_GIO_adviesgroep_b0789a25bd27-db-table-wp_revslider_slides.table.gz - 8.1 KB)
0049.247 (0) Table wp_revslider_static_slides: Total expected rows (approximate): 1
0049.268 (0) Table wp_revslider_static_slides: Total rows added: 1 in 0.02 seconds
0049.272 (0) Table wp_revslider_static_slides: finishing file (backup_2017-10-20-1011_GIO_adviesgroep_b0789a25bd27-db-table-wp_revslider_static_slides.table.gz - 0.4 KB)
0049.288 (0) Table wp_woocommerce_api_keys: Total expected rows (approximate): 0
0049.301 (0) Table wp_woocommerce_api_keys: Total rows added: 0 in 0.01 seconds
0049.304 (0) Table wp_woocommerce_api_keys: finishing file (backup_2017-10-20-1011_GIO_adviesgroep_b0789a25bd27-db-table-wp_woocommerce_api_keys.table.gz - 0.4 KB)
0049.313 (0) Table wp_woocommerce_attribute_taxonomies: Total expected rows (approximate): 0
0049.321 (0) Table wp_woocommerce_attribute_taxonomies: Total rows added: 0 in 0.01 seconds
0049.327 (0) Table wp_woocommerce_attribute_taxonomies: finishing file (backup_2017-10-20-1011_GIO_adviesgroep_b0789a25bd27-db-table-wp_woocommerce_attribute_taxonomies.table.gz - 0.3 KB)
0049.336 (0) Table wp_woocommerce_downloadable_product_permissions: Total expected rows (approximate): 0
0049.348 (0) Table wp_woocommerce_downloadable_product_permissions: Total rows added: 0 in 0.01 seconds
0049.355 (0) Table wp_woocommerce_downloadable_product_permissions: finishing file (backup_2017-10-20-1011_GIO_adviesgroep_b0789a25bd27-db-table-wp_woocommerce_downloadable_product_permissions.table.gz - 0.4 KB)
0049.363 (0) Table wp_woocommerce_order_itemmeta: Total expected rows (approximate): 0
0049.370 (0) Table wp_woocommerce_order_itemmeta: Total rows added: 0 in 0.01 seconds
0049.373 (0) Table wp_woocommerce_order_itemmeta: finishing file (backup_2017-10-20-1011_GIO_adviesgroep_b0789a25bd27-db-table-wp_woocommerce_order_itemmeta.table.gz - 0.3 KB)
0049.381 (0) Table wp_woocommerce_order_items: Total expected rows (approximate): 0
0049.388 (0) Table wp_woocommerce_order_items: Total rows added: 0 in 0.01 seconds
0049.394 (0) Table wp_woocommerce_order_items: finishing file (backup_2017-10-20-1011_GIO_adviesgroep_b0789a25bd27-db-table-wp_woocommerce_order_items.table.gz - 0.3 KB)
0049.402 (0) Table wp_woocommerce_tax_rate_locations: Total expected rows (approximate): 0
0049.410 (0) Table wp_woocommerce_tax_rate_locations: Total rows added: 0 in 0.01 seconds
0049.412 (0) Table wp_woocommerce_tax_rate_locations: finishing file (backup_2017-10-20-1011_GIO_adviesgroep_b0789a25bd27-db-table-wp_woocommerce_tax_rate_locations.table.gz - 0.3 KB)
0049.420 (0) Table wp_woocommerce_tax_rates: Total expected rows (approximate): 0
0049.431 (0) Table wp_woocommerce_tax_rates: Total rows added: 0 in 0.01 seconds
0049.435 (0) Table wp_woocommerce_tax_rates: finishing file (backup_2017-10-20-1011_GIO_adviesgroep_b0789a25bd27-db-table-wp_woocommerce_tax_rates.table.gz - 0.4 KB)
0049.443 (0) Table wp_woocommerce_termmeta: Total expected rows (approximate): 3
0049.451 (0) Table wp_woocommerce_termmeta: Total rows added: 3 in 0.01 seconds
0049.453 (0) Table wp_woocommerce_termmeta: finishing file (backup_2017-10-20-1011_GIO_adviesgroep_b0789a25bd27-db-table-wp_woocommerce_termmeta.table.gz - 0.4 KB)
0049.462 (0) Table wp_yoast_seo_links: Total expected rows (approximate): 2
0049.473 (0) Table wp_yoast_seo_links: Total rows added: 2 in 0.01 seconds
0049.475 (0) Table wp_yoast_seo_links: finishing file (backup_2017-10-20-1011_GIO_adviesgroep_b0789a25bd27-db-table-wp_yoast_seo_links.table.gz - 0.5 KB)
0049.484 (0) Table wp_yoast_seo_meta: Total expected rows (approximate): 2
0049.498 (0) Table wp_yoast_seo_meta: Total rows added: 2 in 0.01 seconds
0049.501 (0) Table wp_yoast_seo_meta: finishing file (backup_2017-10-20-1011_GIO_adviesgroep_b0789a25bd27-db-table-wp_yoast_seo_meta.table.gz - 0.3 KB)
0049.506 (0) backup_2017-10-20-1011_GIO_adviesgroep_b0789a25bd27-db-table-wp_options.table.gz (1/33): adding to final database dump
0049.548 (0) backup_2017-10-20-1011_GIO_adviesgroep_b0789a25bd27-db-table-wp_users.table.gz (2/33): adding to final database dump
0049.550 (0) backup_2017-10-20-1011_GIO_adviesgroep_b0789a25bd27-db-table-wp_usermeta.table.gz (3/33): adding to final database dump
0049.552 (0) backup_2017-10-20-1011_GIO_adviesgroep_b0789a25bd27-db-table-wp_commentmeta.table.gz (4/33): adding to final database dump
0049.554 (0) backup_2017-10-20-1011_GIO_adviesgroep_b0789a25bd27-db-table-wp_comments.table.gz (5/33): adding to final database dump
0049.555 (0) backup_2017-10-20-1011_GIO_adviesgroep_b0789a25bd27-db-table-wp_links.table.gz (6/33): adding to final database dump
0049.556 (0) backup_2017-10-20-1011_GIO_adviesgroep_b0789a25bd27-db-table-wp_postmeta.table.gz (7/33): adding to final database dump
0049.653 (0) backup_2017-10-20-1011_GIO_adviesgroep_b0789a25bd27-db-table-wp_posts.table.gz (8/33): adding to final database dump
0049.851 (0) backup_2017-10-20-1011_GIO_adviesgroep_b0789a25bd27-db-table-wp_term_relationships.table.gz (9/33): adding to final database dump
0049.853 (0) backup_2017-10-20-1011_GIO_adviesgroep_b0789a25bd27-db-table-wp_term_taxonomy.table.gz (10/33): adding to final database dump
0049.855 (0) backup_2017-10-20-1011_GIO_adviesgroep_b0789a25bd27-db-table-wp_termmeta.table.gz (11/33): adding to final database dump
0049.856 (0) backup_2017-10-20-1011_GIO_adviesgroep_b0789a25bd27-db-table-wp_terms.table.gz (12/33): adding to final database dump
0049.857 (0) backup_2017-10-20-1011_GIO_adviesgroep_b0789a25bd27-db-table-wp_cf7dbplugin_st.table.gz (13/33): adding to final database dump
0049.860 (0) backup_2017-10-20-1011_GIO_adviesgroep_b0789a25bd27-db-table-wp_cf7dbplugin_submits.table.gz (14/33): adding to final database dump
0049.900 (0) backup_2017-10-20-1011_GIO_adviesgroep_b0789a25bd27-db-table-wp_duplicator_packages.table.gz (15/33): adding to final database dump
0049.902 (0) backup_2017-10-20-1011_GIO_adviesgroep_b0789a25bd27-db-table-wp_iwp_backup_status.table.gz (16/33): adding to final database dump
0049.903 (0) backup_2017-10-20-1011_GIO_adviesgroep_b0789a25bd27-db-table-wp_layerslider.table.gz (17/33): adding to final database dump
0049.907 (0) backup_2017-10-20-1011_GIO_adviesgroep_b0789a25bd27-db-table-wp_revslider_css.table.gz (18/33): adding to final database dump
0049.910 (0) backup_2017-10-20-1011_GIO_adviesgroep_b0789a25bd27-db-table-wp_revslider_layer_animations.table.gz (19/33): adding to final database dump
0049.912 (0) backup_2017-10-20-1011_GIO_adviesgroep_b0789a25bd27-db-table-wp_revslider_navigations.table.gz (20/33): adding to final database dump
0049.915 (0) backup_2017-10-20-1011_GIO_adviesgroep_b0789a25bd27-db-table-wp_revslider_sliders.table.gz (21/33): adding to final database dump
0049.918 (0) backup_2017-10-20-1011_GIO_adviesgroep_b0789a25bd27-db-table-wp_revslider_slides.table.gz (22/33): adding to final database dump
0049.923 (0) backup_2017-10-20-1011_GIO_adviesgroep_b0789a25bd27-db-table-wp_revslider_static_slides.table.gz (23/33): adding to final database dump
0049.924 (0) backup_2017-10-20-1011_GIO_adviesgroep_b0789a25bd27-db-table-wp_woocommerce_api_keys.table.gz (24/33): adding to final database dump
0049.925 (0) backup_2017-10-20-1011_GIO_adviesgroep_b0789a25bd27-db-table-wp_woocommerce_attribute_taxonomies.table.gz (25/33): adding to final database dump
0049.926 (0) backup_2017-10-20-1011_GIO_adviesgroep_b0789a25bd27-db-table-wp_woocommerce_downloadable_product_permissions.table.gz (26/33): adding to final database dump
0049.928 (0) backup_2017-10-20-1011_GIO_adviesgroep_b0789a25bd27-db-table-wp_woocommerce_order_itemmeta.table.gz (27/33): adding to final database dump
0049.930 (0) backup_2017-10-20-1011_GIO_adviesgroep_b0789a25bd27-db-table-wp_woocommerce_order_items.table.gz (28/33): adding to final database dump
0049.932 (0) backup_2017-10-20-1011_GIO_adviesgroep_b0789a25bd27-db-table-wp_woocommerce_tax_rate_locations.table.gz (29/33): adding to final database dump
0049.933 (0) backup_2017-10-20-1011_GIO_adviesgroep_b0789a25bd27-db-table-wp_woocommerce_tax_rates.table.gz (30/33): adding to final database dump
0049.935 (0) backup_2017-10-20-1011_GIO_adviesgroep_b0789a25bd27-db-table-wp_woocommerce_termmeta.table.gz (31/33): adding to final database dump
0049.936 (0) backup_2017-10-20-1011_GIO_adviesgroep_b0789a25bd27-db-table-wp_yoast_seo_links.table.gz (32/33): adding to final database dump
0049.937 (0) backup_2017-10-20-1011_GIO_adviesgroep_b0789a25bd27-db-table-wp_yoast_seo_meta.table.gz (33/33): adding to final database dump
0049.944 (0) backup_2017-10-20-1011_GIO_adviesgroep_b0789a25bd27-db.gz: finished writing out complete database file (976 KB)
0049.986 (0) Total database tables backed up: 33 (backup_2017-10-20-1011_GIO_adviesgroep_b0789a25bd27-db.gz, size: 1007884, sha256)
0049.992 (0) backup_2017-10-20-1011_GIO_adviesgroep_b0789a25bd27-plugins.zip: plugins: This file has not yet been successfully uploaded: will queue
0049.993 (0) backup_2017-10-20-1011_GIO_adviesgroep_b0789a25bd27-themes.zip: themes: This file has not yet been successfully uploaded: will queue
0049.994 (0) backup_2017-10-20-1011_GIO_adviesgroep_b0789a25bd27-others.zip: others: This file has not yet been successfully uploaded: will queue
0049.995 (0) backup_2017-10-20-1011_GIO_adviesgroep_b0789a25bd27-db.gz: db: This file has not yet been successfully uploaded: will queue
0049.997 (0) Saving backup history. Total backup size: 91.9 MB
0049.999 (0) Requesting upload of the files that have not yet been successfully uploaded (4)
0050.002 (0) Cloud backup selection (1/1): none (last)
0050.003 (0) No remote despatch: user chose no remote backup service
0050.005 (0) Recording as successfully uploaded: backup_2017-10-20-1011_GIO_adviesgroep_b0789a25bd27-plugins.zip (bc88a531cb0d32aab48303665659dfbc)
0050.009 (0) Recording as successfully uploaded: backup_2017-10-20-1011_GIO_adviesgroep_b0789a25bd27-themes.zip (fc63833df7bfb7e10899ce9c52278736)
0050.015 (0) Recording as successfully uploaded: backup_2017-10-20-1011_GIO_adviesgroep_b0789a25bd27-others.zip (c20681261530d8d09ded457b7d1309e6)
0050.019 (0) Recording as successfully uploaded: backup_2017-10-20-1011_GIO_adviesgroep_b0789a25bd27-db.gz (263ae98202e7f6d10b804bbe8069d2c8)
0050.022 (0) Retain: beginning examination of existing backup sets; user setting: retain_files=3, retain_db=3
0050.023 (0) Number of backup sets in history: 2; groups (db): 1
0050.024 (0) Examining (for databases) backup set with group_id=0, nonce=b0789a25bd27, datestamp=1508490669 (Oct 20 2017 09:11:09)
0050.025 (0) This backup set is the backup set just made, so will not be deleted.
0050.025 (0) Examining (for databases) backup set with group_id=0, nonce=97273b24f4be, datestamp=1508490168 (Oct 20 2017 09:02:48)
0050.025 (0) This backup set remains non-empty (f=1/d=1); will retain in history
0050.025 (0) Number of backup sets in history: 2; groups (files): 1
0050.026 (0) Examining (for files) backup set with nonce=b0789a25bd27, datestamp=1508490669 (Oct 20 2017 09:11:09)
0050.026 (0) This backup set is the backup set just made, so will not be deleted.
0050.027 (0) This backup set is the backup set just made, so will not be deleted.
0050.027 (0) This backup set is the backup set just made, so will not be deleted.
0050.027 (0) This backup set remains non-empty (f=1/d=1); will retain in history
0050.028 (0) Examining (for files) backup set with nonce=97273b24f4be, datestamp=1508490168 (Oct 20 2017 09:02:48)
0050.028 (0) This backup set remains non-empty (f=1/d=1); will retain in history
0050.028 (0) Retain: saving new backup history (sets now: 2) and finishing retain operation
0050.032 (0) Resume backup (b0789a25bd27, 0): finish run
0050.033 (0) Decremented the semaphore (fd) by 1
0050.034 (0) Semaphore (fd) unlocked
0050.035 (0) There were no errors in the uploads, so the 'resume' event (1) is being unscheduled
0050.037 (0) The backup apparently succeeded and is now complete
0050.038 (0) No email will/can be sent - the user has not configured an email address.
0050.038 (0) De backup is zo te zien geslaagd, en is nu afgerond.
